<?xml version="1.0" encoding="UTF-8"?>
<svg id="empty" width="2.5mm" height="2.5mm" inkscape:version="1.0.1 (3bc2e813f5, 2020-09-07)" sodipodi:docname="emptyDot.svg" version="1.1" viewBox="0 0 111.04 111.05" xmlns="http://www.w3.org/2000/svg" xmlns:cc="http://creativecommons.org/ns#" xmlns:dc="http://purl.org/dc/elements/1.1/" xmlns:inkscape="http://www.inkscape.org/namespaces/inkscape" xmlns:osb="http://www.openswatchbook.org/uri/2009/osb" xmlns:rdf="http://www.w3.org/1999/02/22-rdf-syntax-ns#" xmlns:sodipodi="http://sodipodi.sourceforge.net/DTD/sodipodi-0.dtd" xmlns:xlink="http://www.w3.org/1999/xlink">
 <style/>
 <title>emptyDot</title>
 <defs>
  <linearGradient id="linearGradient3253" x1="60.802" x2="162.1" y1="120.81" y2="120.81" gradientUnits="userSpaceOnUse" inkscape:collect="always">
   <stop offset="0"/>
  </linearGradient>
 </defs>
 <sodipodi:namedview id="base" bordercolor="#666666" borderopacity="1.0" inkscape:current-layer="layer1" inkscape:cx="185.45864" inkscape:cy="314.50889" inkscape:document-rotation="0" inkscape:document-units="mm" inkscape:pageopacity="0.0" inkscape:pageshadow="2" inkscape:window-height="1377" inkscape:window-maximized="1" inkscape:window-width="2560" inkscape:window-x="-8" inkscape:window-y="-8" inkscape:zoom="0.7" pagecolor="#ffffff" showgrid="false"/>
 <metadata>
  <rdf:RDF>
   <cc:Work rdf:about="">
    <dc:format>image/svg+xml</dc:format>
    <dc:type rdf:resource="http://purl.org/dc/dcmitype/StillImage"/>
    <dc:title>emptyDot</dc:title>
   </cc:Work>
  </rdf:RDF>
 </metadata>
 <g transform="translate(-55.931 -65.286)" inkscape:groupmode="layer" inkscape:label="Layer 1">
  <path d="m110.58 70.295c-10.795 0.14785-21.613 3.9598-30.137 10.626-8.6944 6.7371-15.045 16.339-17.828 26.953-2.8032 10.526-2.0904 21.865 2.035 31.956 4.0841 10.131 11.597 18.861 21.026 24.427 9.3604 5.5855 20.59 7.9925 31.392 6.7556 10.825-1.1858 21.24-6.0178 29.141-13.545 7.9078-7.4616 13.287-17.572 15.061-28.284 1.807-10.712 0.0873-21.845-4.9225-31.537-4.0758-7.9495-10.437-14.882-18.025-19.618-8.2333-5.1935-17.992-7.9172-27.742-7.734z" fill="#fff" fill-rule="evenodd" stroke="url(#linearGradient3253)" stroke-width="10"/>
 </g>
</svg>
